1 100 119
2 200 125
3 500 144
4 1000 179
5 1700 182
6 2600 209
7 3700 217
8 5000 238
9 6500 262
10 8200 262
11 10100 262
12 12200 268
13 14500 276
14 17000 276
15 19700 279
16 22600 279
17 25700 282
18 29000 308
19 32500 308
20 36200 324
21 40100 324
22 44200 324
23 48500 324
24 53000 340
75 547700 470
76 562600 470
77 577700 470
78 593000 470
79 608500 470
80 624200 470
81 640100 509
82 656200 509
83 672500 509
84 689000 509
85 705700 509
86 722600 509
87 739700 509
88 757000 509
89 774500 509
90 792200 509
91 810100 509
92 828200 509
93 846500 525
94 865000 525
95 883700 525
96 902600 525
97 921700 525
98 941000 525
99 960500 525
100 980200 525
259493 939673 525
950644 776200 525
386149 927744 525
113821 606796 470
233523 796177 509
710804 593470 509
688877 770661 504
92941 690932 509
755536 664123 504
231867 364217 441
406386 257978 441
320327 516818 470
131160 689395 509
688265 885179 525
247244 844187 525
856751 402548 525
847659 667295 525
767005 317990 509
124927 172627 383
20598 204397 383
498912 721362 509
652418 309353 509
302389 242094 407
904445 970709 507
910431 449956 525
581957 110836 470
325194 634633 509
53190 863208 525
983748 291692 525
538167 388763 470
79638 69720 351
393193 422461 449
65883 480797 449
101398 720203 509
859737 981980 507
124427 251285 443
88047 932840 525
405036 101840 443
335527 773719 509
440381 688835 509
39826 596077 470
186495 932838 525
320710 361762 441
711164 404659 509
349497 141875 443
558478 136351 470
192761 89391 383
302106 570062 470
697185 44356 509
906156 539495 525
